320
sgsh
sgsh_h128星河Happy $128
Happy $128
2630
1套餐卡充值>>不可漫游 不能开流量包>>含$28 国际IDD电话/短信>>含$100 本地通话/短信>>有效期50天>>IDD指国际电话 拨打中国加拨01886
2

564
sgsh_hs17
星河Happy Stars $17
Happy Stars $17
1600
1
套餐卡充值>>不可漫游 不能开流量包>>含120分钟本地电话 500条本地短信>>含200mb本地流量>>免费接听>>有效期30天
2


sgsh_hsp25
683
星河Happy Stars Plus $25
Happy Stars+ $25
2350
套餐卡充值>>主卡 $10，能开流量包>>含120分钟本地通话,500条本地短信,400MB本地流量>>免费接听电话>>查询方法：*126#>>有效期50天


sgm1_s130
425
Super130
m1 Super130
2640
套餐卡充值>>不可漫游 不能开流量包>>含$30国际IDD电话/短信>>含$100本地通话/短信>>有效期50天>>*IDD指国际电话 拨打中国加拨02186


sgm1_s55
708
Super$55
m1 Super$55
套餐卡充值>>不可漫游 不能开流量包>>含$15国际IDD电话/短信>>含$40本地通话/短信>>有效期50天>>*IDD指国际电话 拨打中国加拨02186



sgm1_m17
325
m1 MCard $17
MCard$17
1600
1
套餐卡充值>>不可漫游 不能开流量包>>含120分钟本地通话 500条本地短信>>含200MB本地流量>>免费接听>>有效期30天
2

sgm1_m23
912
m1 MCard $23
MCard$23
2160
1
套餐卡充值>>不可漫游 不能开流量包>>含Bonus Balance $12>>含120分钟本地通话 500条本地短信>>含350MB本地流量>>免费接听>>有效期50天
2
￥










